G04 #@! TF.FileFunction,Copper,L2,Bot,Signal*
%FSLAX46Y46*%
G04 Gerber Fmt 4.6, Leading zero omitted, Abs format (unit mm)*
G04 Created by KiCad (PCBNEW 4.0.7) date 11/04/17 10:18:42*
%MOMM*%
%LPD*%
G01*
G04 APERTURE LIST*
%ADD10C,0.100000*%
%ADD11R,1.800000X1.800000*%
%ADD12O,1.800000X1.524000*%
%ADD13C,6.400000*%
%ADD14C,0.800000*%
%ADD15R,1.700000X1.700000*%
%ADD16O,1.700000X1.700000*%
%ADD17C,2.500000*%
%ADD18R,2.500000X2.500000*%
%ADD19C,0.600000*%
%ADD20C,0.381000*%
%ADD21C,0.254000*%
%ADD22C,0.300000*%
%ADD23C,4.000000*%
%ADD24C,0.508000*%
G04 APERTURE END LIST*
D10*
D11*
X152654000Y-129413000D03*
D12*
X152654000Y-120269000D03*
D11*
X137414000Y-129413000D03*
D12*
X137414000Y-120269000D03*
D13*
X101000000Y-127000000D03*
D14*
X103400000Y-127000000D03*
X102697056Y-128697056D03*
X101000000Y-129400000D03*
X99302944Y-128697056D03*
X98600000Y-127000000D03*
X99302944Y-125302944D03*
X101000000Y-124600000D03*
X102697056Y-125302944D03*
D13*
X158500000Y-127000000D03*
D14*
X160900000Y-127000000D03*
X160197056Y-128697056D03*
X158500000Y-129400000D03*
X156802944Y-128697056D03*
X156100000Y-127000000D03*
X156802944Y-125302944D03*
X158500000Y-124600000D03*
X160197056Y-125302944D03*
D15*
X127000000Y-111760000D03*
D16*
X127000000Y-114300000D03*
X127000000Y-116840000D03*
X127000000Y-119380000D03*
D13*
X101000000Y-94000000D03*
D14*
X103400000Y-94000000D03*
X102697056Y-95697056D03*
X101000000Y-96400000D03*
X99302944Y-95697056D03*
X98600000Y-94000000D03*
X99302944Y-92302944D03*
X101000000Y-91600000D03*
X102697056Y-92302944D03*
D13*
X158500000Y-94000000D03*
D14*
X160900000Y-94000000D03*
X160197056Y-95697056D03*
X158500000Y-96400000D03*
X156802944Y-95697056D03*
X156100000Y-94000000D03*
X156802944Y-92302944D03*
X158500000Y-91600000D03*
X160197056Y-92302944D03*
D15*
X157099000Y-117602000D03*
D16*
X154559000Y-117602000D03*
D17*
X101473000Y-120457000D03*
X101473000Y-115457000D03*
X101473000Y-110457000D03*
D18*
X101473000Y-100457000D03*
D17*
X101473000Y-105457000D03*
D18*
X158000000Y-113000000D03*
D17*
X158000000Y-108000000D03*
D19*
X130810000Y-109855000D03*
X130810000Y-113030000D03*
X159766000Y-98425000D03*
X152019000Y-102997000D03*
X135255000Y-121920000D03*
X133985000Y-123190000D03*
X132715000Y-123190000D03*
X135255000Y-123190000D03*
X131445000Y-123190000D03*
X130175000Y-123190000D03*
X131445000Y-121920000D03*
X132715000Y-121920000D03*
X133985000Y-121920000D03*
X130175000Y-121920000D03*
X125730000Y-99060000D03*
X112395000Y-96520000D03*
X113665000Y-96520000D03*
X116205000Y-96520000D03*
X114935000Y-96520000D03*
X116205000Y-95250000D03*
X116205000Y-93980000D03*
X114935000Y-93980000D03*
X113665000Y-93980000D03*
X112395000Y-93980000D03*
X112395000Y-95250000D03*
X113665000Y-95250000D03*
X114935000Y-95250000D03*
X114935000Y-106680000D03*
X116205000Y-106680000D03*
X113665000Y-106680000D03*
X112395000Y-106680000D03*
X116205000Y-104140000D03*
X116205000Y-105410000D03*
X113665000Y-105410000D03*
X112395000Y-105410000D03*
X114935000Y-105410000D03*
X113665000Y-104140000D03*
X114935000Y-104140000D03*
X112395000Y-104140000D03*
X116205000Y-114300000D03*
X112395000Y-114300000D03*
X114935000Y-114300000D03*
X113665000Y-114300000D03*
X114935000Y-115570000D03*
X112395000Y-115570000D03*
X113665000Y-115570000D03*
X116205000Y-115570000D03*
X112395000Y-116840000D03*
X113665000Y-116840000D03*
X116205000Y-116840000D03*
X114935000Y-116840000D03*
X113665000Y-123190000D03*
X116205000Y-123190000D03*
X116205000Y-124460000D03*
X114935000Y-123190000D03*
X112395000Y-123190000D03*
X113665000Y-124460000D03*
X114935000Y-124460000D03*
X112395000Y-124460000D03*
X116205000Y-125730000D03*
X113665000Y-125730000D03*
X112395000Y-125730000D03*
X114935000Y-125730000D03*
X145415000Y-99695000D03*
X145415000Y-101600000D03*
X121793000Y-125730000D03*
X124460000Y-109728000D03*
X153670000Y-111379000D03*
X149352000Y-123825000D03*
X130175000Y-100965000D03*
X139700000Y-103505000D03*
X130810000Y-103505000D03*
X139065000Y-104775000D03*
D20*
X130810000Y-113030000D02*
X130810000Y-109855000D01*
D21*
X135255000Y-121920000D02*
X135255000Y-123190000D01*
X133985000Y-123190000D02*
X132715000Y-123190000D01*
X131445000Y-123190000D02*
X130175000Y-123190000D01*
X130175000Y-121920000D02*
X131445000Y-121920000D01*
X132715000Y-121920000D02*
X133985000Y-121920000D01*
X116205000Y-96520000D02*
X114935000Y-96520000D01*
X112395000Y-94615000D02*
X112395000Y-93980000D01*
X116205000Y-106680000D02*
X114935000Y-106680000D01*
X112395000Y-106680000D02*
X113665000Y-106680000D01*
X114935000Y-105410000D02*
X116205000Y-105410000D01*
X112395000Y-105410000D02*
X113665000Y-105410000D01*
X114935000Y-105410000D02*
X114935000Y-105410000D01*
X112395000Y-104140000D02*
X113665000Y-104140000D01*
X112395000Y-114300000D02*
X113665000Y-114300000D01*
X114935000Y-115570000D02*
X114935000Y-115570000D01*
X112395000Y-115570000D02*
X113665000Y-115570000D01*
X114935000Y-115570000D02*
X116205000Y-115570000D01*
X112395000Y-116840000D02*
X113665000Y-116840000D01*
X116205000Y-116840000D02*
X114935000Y-116840000D01*
D20*
X116205000Y-123190000D02*
X116205000Y-124460000D01*
D21*
X114935000Y-125730000D02*
X116205000Y-125730000D01*
X112395000Y-125730000D02*
X113665000Y-125730000D01*
X114935000Y-125730000D02*
X114935000Y-125730000D01*
D20*
X113665000Y-123190000D02*
X114935000Y-123190000D01*
D21*
X112395000Y-124460000D02*
X113665000Y-124460000D01*
D22*
X127000000Y-114300000D02*
X131445000Y-113665000D01*
X131445000Y-113665000D02*
X145415000Y-99695000D01*
X127000000Y-116840000D02*
X130810000Y-116205000D01*
X130810000Y-116205000D02*
X145415000Y-101600000D01*
D21*
X121793000Y-125730000D02*
X123317000Y-125730000D01*
X124460000Y-124587000D02*
X124460000Y-109728000D01*
X123317000Y-125730000D02*
X124460000Y-124587000D01*
X149352000Y-123825000D02*
X149352000Y-122809000D01*
X153670000Y-113665000D02*
X153670000Y-111379000D01*
X150876000Y-116459000D02*
X153670000Y-113665000D01*
X150876000Y-121285000D02*
X150876000Y-116459000D01*
X149352000Y-122809000D02*
X150876000Y-121285000D01*
X130175000Y-100965000D02*
X132715000Y-103505000D01*
X132715000Y-103505000D02*
X139700000Y-103505000D01*
X130810000Y-103505000D02*
X132080000Y-104775000D01*
X132080000Y-104775000D02*
X139065000Y-104775000D01*
D23*
X101473000Y-120457000D02*
X102804000Y-120457000D01*
X151969000Y-108000000D02*
X158000000Y-108000000D01*
X147066000Y-112903000D02*
X151969000Y-108000000D01*
X147066000Y-120015000D02*
X147066000Y-112903000D01*
X141224000Y-125857000D02*
X147066000Y-120015000D01*
X135890000Y-125857000D02*
X141224000Y-125857000D01*
X133350000Y-128397000D02*
X135890000Y-125857000D01*
X110744000Y-128397000D02*
X133350000Y-128397000D01*
X102804000Y-120457000D02*
X110744000Y-128397000D01*
D24*
X158000000Y-108000000D02*
X159562000Y-108000000D01*
X159639000Y-117602000D02*
X157099000Y-117602000D01*
X160909000Y-116332000D02*
X159639000Y-117602000D01*
X160909000Y-109347000D02*
X160909000Y-116332000D01*
X159562000Y-108000000D02*
X160909000Y-109347000D01*
D23*
X158000000Y-108000000D02*
X155371000Y-108000000D01*
D24*
X157000000Y-108000000D02*
X157000000Y-108176000D01*
D23*
X155371000Y-108000000D02*
X157000000Y-108000000D01*
D21*
G36*
X131953000Y-97790000D02*
X131963006Y-97839410D01*
X131991447Y-97881035D01*
X132033841Y-97908315D01*
X132080000Y-97917000D01*
X161290000Y-97917000D01*
X161336159Y-97908315D01*
X161378553Y-97881035D01*
X161406994Y-97839410D01*
X161417000Y-97790000D01*
X161417000Y-96506869D01*
X161749259Y-96175189D01*
X161977000Y-95626728D01*
X161977000Y-125372485D01*
X161753050Y-124830485D01*
X161417000Y-124493848D01*
X161417000Y-123190000D01*
X161408315Y-123143841D01*
X161381035Y-123101447D01*
X161339410Y-123073006D01*
X161290000Y-123063000D01*
X150495000Y-123063000D01*
X150448841Y-123071685D01*
X150406447Y-123098965D01*
X150378006Y-123140590D01*
X150368000Y-123190000D01*
X150368000Y-130100000D01*
X138961440Y-130100000D01*
X138961440Y-128513000D01*
X138957489Y-128492000D01*
X141224000Y-128492000D01*
X142232371Y-128291423D01*
X143087226Y-127720226D01*
X148929227Y-121878226D01*
X149500423Y-121023371D01*
X149701000Y-120015000D01*
X149701000Y-113994452D01*
X153060452Y-110635000D01*
X153091854Y-110635000D01*
X152877808Y-110848673D01*
X152735162Y-111192201D01*
X152734838Y-111564167D01*
X152876883Y-111907943D01*
X152908000Y-111939114D01*
X152908000Y-113349369D01*
X150337185Y-115920185D01*
X150172004Y-116167395D01*
X150114000Y-116459000D01*
X150114000Y-120969369D01*
X148813185Y-122270185D01*
X148648004Y-122517395D01*
X148590000Y-122809000D01*
X148590000Y-123264534D01*
X148559808Y-123294673D01*
X148417162Y-123638201D01*
X148416838Y-124010167D01*
X148558883Y-124353943D01*
X148821673Y-124617192D01*
X149165201Y-124759838D01*
X149537167Y-124760162D01*
X149880943Y-124618117D01*
X150144192Y-124355327D01*
X150286838Y-124011799D01*
X150287162Y-123639833D01*
X150145117Y-123296057D01*
X150114000Y-123264886D01*
X150114000Y-123124630D01*
X151414815Y-121823816D01*
X151579996Y-121576605D01*
X151601935Y-121466311D01*
X151626534Y-121342645D01*
X151951319Y-121559660D01*
X152485928Y-121666000D01*
X152822072Y-121666000D01*
X153356681Y-121559660D01*
X153809900Y-121256828D01*
X154112732Y-120803609D01*
X154219072Y-120269000D01*
X154112732Y-119734391D01*
X153809900Y-119281172D01*
X153356681Y-118978340D01*
X152822072Y-118872000D01*
X152485928Y-118872000D01*
X151951319Y-118978340D01*
X151638000Y-119187694D01*
X151638000Y-116774630D01*
X154208816Y-114203815D01*
X154307834Y-114055623D01*
X154373996Y-113956605D01*
X154432000Y-113665000D01*
X154432000Y-111939466D01*
X154462192Y-111909327D01*
X154528350Y-111750000D01*
X156102560Y-111750000D01*
X156102560Y-114250000D01*
X156146838Y-114485317D01*
X156285910Y-114701441D01*
X156498110Y-114846431D01*
X156750000Y-114897440D01*
X159250000Y-114897440D01*
X159485317Y-114853162D01*
X159701441Y-114714090D01*
X159846431Y-114501890D01*
X159897440Y-114250000D01*
X159897440Y-111750000D01*
X159853162Y-111514683D01*
X159714090Y-111298559D01*
X159501890Y-111153569D01*
X159250000Y-111102560D01*
X156750000Y-111102560D01*
X156514683Y-111146838D01*
X156298559Y-111285910D01*
X156153569Y-111498110D01*
X156102560Y-111750000D01*
X154528350Y-111750000D01*
X154604838Y-111565799D01*
X154605162Y-111193833D01*
X154463117Y-110850057D01*
X154248435Y-110635000D01*
X158000000Y-110635000D01*
X159008371Y-110434423D01*
X159863226Y-109863226D01*
X159985297Y-109680533D01*
X160020000Y-109715236D01*
X160020000Y-115963764D01*
X159270764Y-116713000D01*
X158589102Y-116713000D01*
X158552162Y-116516683D01*
X158413090Y-116300559D01*
X158200890Y-116155569D01*
X157949000Y-116104560D01*
X156249000Y-116104560D01*
X156013683Y-116148838D01*
X155797559Y-116287910D01*
X155652569Y-116500110D01*
X155638914Y-116567541D01*
X155609054Y-116522853D01*
X155127285Y-116200946D01*
X154559000Y-116087907D01*
X153990715Y-116200946D01*
X153508946Y-116522853D01*
X153187039Y-117004622D01*
X153074000Y-117572907D01*
X153074000Y-117631093D01*
X153187039Y-118199378D01*
X153508946Y-118681147D01*
X153990715Y-119003054D01*
X154559000Y-119116093D01*
X155127285Y-119003054D01*
X155609054Y-118681147D01*
X155636850Y-118639548D01*
X155645838Y-118687317D01*
X155784910Y-118903441D01*
X155997110Y-119048431D01*
X156249000Y-119099440D01*
X157949000Y-119099440D01*
X158184317Y-119055162D01*
X158400441Y-118916090D01*
X158545431Y-118703890D01*
X158588542Y-118491000D01*
X159639000Y-118491000D01*
X159979206Y-118423329D01*
X160267618Y-118230618D01*
X161537618Y-116960618D01*
X161618212Y-116840000D01*
X161730329Y-116672206D01*
X161798000Y-116332000D01*
X161798000Y-109347000D01*
X161782939Y-109271283D01*
X161730330Y-109006795D01*
X161537618Y-108718382D01*
X160589254Y-107770018D01*
X160434423Y-106991629D01*
X159863226Y-106136774D01*
X159008371Y-105565577D01*
X158000000Y-105365000D01*
X151969000Y-105365000D01*
X151104301Y-105536999D01*
X150960629Y-105565577D01*
X150105774Y-106136774D01*
X145202774Y-111039774D01*
X144631577Y-111894629D01*
X144431000Y-112903000D01*
X144431000Y-118923547D01*
X140132548Y-123222000D01*
X135890000Y-123222000D01*
X134881629Y-123422577D01*
X134026773Y-123993774D01*
X132258548Y-125762000D01*
X124362630Y-125762000D01*
X124998815Y-125125815D01*
X125163996Y-124878605D01*
X125174696Y-124824811D01*
X125222000Y-124587000D01*
X125222000Y-119736890D01*
X125558524Y-119736890D01*
X125728355Y-120146924D01*
X126118642Y-120575183D01*
X126643108Y-120821486D01*
X126873000Y-120700819D01*
X126873000Y-119507000D01*
X127127000Y-119507000D01*
X127127000Y-120700819D01*
X127356892Y-120821486D01*
X127802812Y-120612070D01*
X135921780Y-120612070D01*
X136151865Y-121099328D01*
X136555188Y-121466311D01*
X137068248Y-121651014D01*
X137287000Y-121507749D01*
X137287000Y-120396000D01*
X137541000Y-120396000D01*
X137541000Y-121507749D01*
X137759752Y-121651014D01*
X138272812Y-121466311D01*
X138676135Y-121099328D01*
X138906220Y-120612070D01*
X138783720Y-120396000D01*
X137541000Y-120396000D01*
X137287000Y-120396000D01*
X136044280Y-120396000D01*
X135921780Y-120612070D01*
X127802812Y-120612070D01*
X127881358Y-120575183D01*
X128271645Y-120146924D01*
X128363177Y-119925930D01*
X135921780Y-119925930D01*
X136044280Y-120142000D01*
X137287000Y-120142000D01*
X137287000Y-119030251D01*
X137541000Y-119030251D01*
X137541000Y-120142000D01*
X138783720Y-120142000D01*
X138906220Y-119925930D01*
X138676135Y-119438672D01*
X138272812Y-119071689D01*
X137759752Y-118886986D01*
X137541000Y-119030251D01*
X137287000Y-119030251D01*
X137068248Y-118886986D01*
X136555188Y-119071689D01*
X136151865Y-119438672D01*
X135921780Y-119925930D01*
X128363177Y-119925930D01*
X128441476Y-119736890D01*
X128320155Y-119507000D01*
X127127000Y-119507000D01*
X126873000Y-119507000D01*
X125679845Y-119507000D01*
X125558524Y-119736890D01*
X125222000Y-119736890D01*
X125222000Y-114300000D01*
X125485907Y-114300000D01*
X125598946Y-114868285D01*
X125920853Y-115350054D01*
X126250026Y-115570000D01*
X125920853Y-115789946D01*
X125598946Y-116271715D01*
X125485907Y-116840000D01*
X125598946Y-117408285D01*
X125920853Y-117890054D01*
X126261553Y-118117702D01*
X126118642Y-118184817D01*
X125728355Y-118613076D01*
X125558524Y-119023110D01*
X125679845Y-119253000D01*
X126873000Y-119253000D01*
X126873000Y-119233000D01*
X127127000Y-119233000D01*
X127127000Y-119253000D01*
X128320155Y-119253000D01*
X128441476Y-119023110D01*
X128271645Y-118613076D01*
X127881358Y-118184817D01*
X127738447Y-118117702D01*
X128079147Y-117890054D01*
X128401054Y-117408285D01*
X128402281Y-117402114D01*
X130939053Y-116979319D01*
X131022698Y-116947691D01*
X131110407Y-116930245D01*
X131164594Y-116894039D01*
X131225548Y-116870991D01*
X131290721Y-116809763D01*
X131365079Y-116760079D01*
X145590005Y-102535153D01*
X145600167Y-102535162D01*
X145943943Y-102393117D01*
X146207192Y-102130327D01*
X146349838Y-101786799D01*
X146350162Y-101414833D01*
X146208117Y-101071057D01*
X145945327Y-100807808D01*
X145601799Y-100665162D01*
X145555036Y-100665121D01*
X145590004Y-100630153D01*
X145600167Y-100630162D01*
X145943943Y-100488117D01*
X146207192Y-100225327D01*
X146349838Y-99881799D01*
X146350162Y-99509833D01*
X146208117Y-99166057D01*
X145945327Y-98902808D01*
X145601799Y-98760162D01*
X145229833Y-98759838D01*
X144886057Y-98901883D01*
X144622808Y-99164673D01*
X144480162Y-99508201D01*
X144480152Y-99519691D01*
X140635123Y-103364720D01*
X140635162Y-103319833D01*
X140493117Y-102976057D01*
X140230327Y-102712808D01*
X139886799Y-102570162D01*
X139514833Y-102569838D01*
X139171057Y-102711883D01*
X139139886Y-102743000D01*
X133030631Y-102743000D01*
X131110125Y-100822495D01*
X131110162Y-100779833D01*
X130968117Y-100436057D01*
X130705327Y-100172808D01*
X130361799Y-100030162D01*
X129989833Y-100029838D01*
X129646057Y-100171883D01*
X129382808Y-100434673D01*
X129240162Y-100778201D01*
X129239838Y-101150167D01*
X129381883Y-101493943D01*
X129644673Y-101757192D01*
X129988201Y-101899838D01*
X130032246Y-101899876D01*
X130702275Y-102569905D01*
X130624833Y-102569838D01*
X130281057Y-102711883D01*
X130017808Y-102974673D01*
X129875162Y-103318201D01*
X129874838Y-103690167D01*
X130016883Y-104033943D01*
X130279673Y-104297192D01*
X130623201Y-104439838D01*
X130667246Y-104439876D01*
X131541184Y-105313815D01*
X131788395Y-105478996D01*
X132080000Y-105537000D01*
X138462843Y-105537000D01*
X131635500Y-112364342D01*
X131635500Y-110305113D01*
X131744838Y-110041799D01*
X131745162Y-109669833D01*
X131603117Y-109326057D01*
X131340327Y-109062808D01*
X130996799Y-108920162D01*
X130624833Y-108919838D01*
X130281057Y-109061883D01*
X130017808Y-109324673D01*
X129875162Y-109668201D01*
X129874838Y-110040167D01*
X129984500Y-110305570D01*
X129984500Y-112579887D01*
X129875162Y-112843201D01*
X129874942Y-113096325D01*
X128141924Y-113343899D01*
X128079147Y-113249946D01*
X128037548Y-113222150D01*
X128085317Y-113213162D01*
X128301441Y-113074090D01*
X128446431Y-112861890D01*
X128497440Y-112610000D01*
X128497440Y-110910000D01*
X128453162Y-110674683D01*
X128314090Y-110458559D01*
X128101890Y-110313569D01*
X127850000Y-110262560D01*
X126150000Y-110262560D01*
X125914683Y-110306838D01*
X125698559Y-110445910D01*
X125553569Y-110658110D01*
X125502560Y-110910000D01*
X125502560Y-112610000D01*
X125546838Y-112845317D01*
X125685910Y-113061441D01*
X125898110Y-113206431D01*
X125965541Y-113220086D01*
X125920853Y-113249946D01*
X125598946Y-113731715D01*
X125485907Y-114300000D01*
X125222000Y-114300000D01*
X125222000Y-110288466D01*
X125252192Y-110258327D01*
X125394838Y-109914799D01*
X125395162Y-109542833D01*
X125253117Y-109199057D01*
X124990327Y-108935808D01*
X124646799Y-108793162D01*
X124274833Y-108792838D01*
X123931057Y-108934883D01*
X123667808Y-109197673D01*
X123525162Y-109541201D01*
X123524838Y-109913167D01*
X123666883Y-110256943D01*
X123698000Y-110288114D01*
X123698000Y-124271370D01*
X123001370Y-124968000D01*
X122353466Y-124968000D01*
X122323327Y-124937808D01*
X121979799Y-124795162D01*
X121607833Y-124794838D01*
X121264057Y-124936883D01*
X121000808Y-125199673D01*
X120858162Y-125543201D01*
X120857971Y-125762000D01*
X118872000Y-125762000D01*
X118872000Y-90880000D01*
X131953000Y-90880000D01*
X131953000Y-97790000D01*
X131953000Y-97790000D01*
G37*
X131953000Y-97790000D02*
X131963006Y-97839410D01*
X131991447Y-97881035D01*
X132033841Y-97908315D01*
X132080000Y-97917000D01*
X161290000Y-97917000D01*
X161336159Y-97908315D01*
X161378553Y-97881035D01*
X161406994Y-97839410D01*
X161417000Y-97790000D01*
X161417000Y-96506869D01*
X161749259Y-96175189D01*
X161977000Y-95626728D01*
X161977000Y-125372485D01*
X161753050Y-124830485D01*
X161417000Y-124493848D01*
X161417000Y-123190000D01*
X161408315Y-123143841D01*
X161381035Y-123101447D01*
X161339410Y-123073006D01*
X161290000Y-123063000D01*
X150495000Y-123063000D01*
X150448841Y-123071685D01*
X150406447Y-123098965D01*
X150378006Y-123140590D01*
X150368000Y-123190000D01*
X150368000Y-130100000D01*
X138961440Y-130100000D01*
X138961440Y-128513000D01*
X138957489Y-128492000D01*
X141224000Y-128492000D01*
X142232371Y-128291423D01*
X143087226Y-127720226D01*
X148929227Y-121878226D01*
X149500423Y-121023371D01*
X149701000Y-120015000D01*
X149701000Y-113994452D01*
X153060452Y-110635000D01*
X153091854Y-110635000D01*
X152877808Y-110848673D01*
X152735162Y-111192201D01*
X152734838Y-111564167D01*
X152876883Y-111907943D01*
X152908000Y-111939114D01*
X152908000Y-113349369D01*
X150337185Y-115920185D01*
X150172004Y-116167395D01*
X150114000Y-116459000D01*
X150114000Y-120969369D01*
X148813185Y-122270185D01*
X148648004Y-122517395D01*
X148590000Y-122809000D01*
X148590000Y-123264534D01*
X148559808Y-123294673D01*
X148417162Y-123638201D01*
X148416838Y-124010167D01*
X148558883Y-124353943D01*
X148821673Y-124617192D01*
X149165201Y-124759838D01*
X149537167Y-124760162D01*
X149880943Y-124618117D01*
X150144192Y-124355327D01*
X150286838Y-124011799D01*
X150287162Y-123639833D01*
X150145117Y-123296057D01*
X150114000Y-123264886D01*
X150114000Y-123124630D01*
X151414815Y-121823816D01*
X151579996Y-121576605D01*
X151601935Y-121466311D01*
X151626534Y-121342645D01*
X151951319Y-121559660D01*
X152485928Y-121666000D01*
X152822072Y-121666000D01*
X153356681Y-121559660D01*
X153809900Y-121256828D01*
X154112732Y-120803609D01*
X154219072Y-120269000D01*
X154112732Y-119734391D01*
X153809900Y-119281172D01*
X153356681Y-118978340D01*
X152822072Y-118872000D01*
X152485928Y-118872000D01*
X151951319Y-118978340D01*
X151638000Y-119187694D01*
X151638000Y-116774630D01*
X154208816Y-114203815D01*
X154307834Y-114055623D01*
X154373996Y-113956605D01*
X154432000Y-113665000D01*
X154432000Y-111939466D01*
X154462192Y-111909327D01*
X154528350Y-111750000D01*
X156102560Y-111750000D01*
X156102560Y-114250000D01*
X156146838Y-114485317D01*
X156285910Y-114701441D01*
X156498110Y-114846431D01*
X156750000Y-114897440D01*
X159250000Y-114897440D01*
X159485317Y-114853162D01*
X159701441Y-114714090D01*
X159846431Y-114501890D01*
X159897440Y-114250000D01*
X159897440Y-111750000D01*
X159853162Y-111514683D01*
X159714090Y-111298559D01*
X159501890Y-111153569D01*
X159250000Y-111102560D01*
X156750000Y-111102560D01*
X156514683Y-111146838D01*
X156298559Y-111285910D01*
X156153569Y-111498110D01*
X156102560Y-111750000D01*
X154528350Y-111750000D01*
X154604838Y-111565799D01*
X154605162Y-111193833D01*
X154463117Y-110850057D01*
X154248435Y-110635000D01*
X158000000Y-110635000D01*
X159008371Y-110434423D01*
X159863226Y-109863226D01*
X159985297Y-109680533D01*
X160020000Y-109715236D01*
X160020000Y-115963764D01*
X159270764Y-116713000D01*
X158589102Y-116713000D01*
X158552162Y-116516683D01*
X158413090Y-116300559D01*
X158200890Y-116155569D01*
X157949000Y-116104560D01*
X156249000Y-116104560D01*
X156013683Y-116148838D01*
X155797559Y-116287910D01*
X155652569Y-116500110D01*
X155638914Y-116567541D01*
X155609054Y-116522853D01*
X155127285Y-116200946D01*
X154559000Y-116087907D01*
X153990715Y-116200946D01*
X153508946Y-116522853D01*
X153187039Y-117004622D01*
X153074000Y-117572907D01*
X153074000Y-117631093D01*
X153187039Y-118199378D01*
X153508946Y-118681147D01*
X153990715Y-119003054D01*
X154559000Y-119116093D01*
X155127285Y-119003054D01*
X155609054Y-118681147D01*
X155636850Y-118639548D01*
X155645838Y-118687317D01*
X155784910Y-118903441D01*
X155997110Y-119048431D01*
X156249000Y-119099440D01*
X157949000Y-119099440D01*
X158184317Y-119055162D01*
X158400441Y-118916090D01*
X158545431Y-118703890D01*
X158588542Y-118491000D01*
X159639000Y-118491000D01*
X159979206Y-118423329D01*
X160267618Y-118230618D01*
X161537618Y-116960618D01*
X161618212Y-116840000D01*
X161730329Y-116672206D01*
X161798000Y-116332000D01*
X161798000Y-109347000D01*
X161782939Y-109271283D01*
X161730330Y-109006795D01*
X161537618Y-108718382D01*
X160589254Y-107770018D01*
X160434423Y-106991629D01*
X159863226Y-106136774D01*
X159008371Y-105565577D01*
X158000000Y-105365000D01*
X151969000Y-105365000D01*
X151104301Y-105536999D01*
X150960629Y-105565577D01*
X150105774Y-106136774D01*
X145202774Y-111039774D01*
X144631577Y-111894629D01*
X144431000Y-112903000D01*
X144431000Y-118923547D01*
X140132548Y-123222000D01*
X135890000Y-123222000D01*
X134881629Y-123422577D01*
X134026773Y-123993774D01*
X132258548Y-125762000D01*
X124362630Y-125762000D01*
X124998815Y-125125815D01*
X125163996Y-124878605D01*
X125174696Y-124824811D01*
X125222000Y-124587000D01*
X125222000Y-119736890D01*
X125558524Y-119736890D01*
X125728355Y-120146924D01*
X126118642Y-120575183D01*
X126643108Y-120821486D01*
X126873000Y-120700819D01*
X126873000Y-119507000D01*
X127127000Y-119507000D01*
X127127000Y-120700819D01*
X127356892Y-120821486D01*
X127802812Y-120612070D01*
X135921780Y-120612070D01*
X136151865Y-121099328D01*
X136555188Y-121466311D01*
X137068248Y-121651014D01*
X137287000Y-121507749D01*
X137287000Y-120396000D01*
X137541000Y-120396000D01*
X137541000Y-121507749D01*
X137759752Y-121651014D01*
X138272812Y-121466311D01*
X138676135Y-121099328D01*
X138906220Y-120612070D01*
X138783720Y-120396000D01*
X137541000Y-120396000D01*
X137287000Y-120396000D01*
X136044280Y-120396000D01*
X135921780Y-120612070D01*
X127802812Y-120612070D01*
X127881358Y-120575183D01*
X128271645Y-120146924D01*
X128363177Y-119925930D01*
X135921780Y-119925930D01*
X136044280Y-120142000D01*
X137287000Y-120142000D01*
X137287000Y-119030251D01*
X137541000Y-119030251D01*
X137541000Y-120142000D01*
X138783720Y-120142000D01*
X138906220Y-119925930D01*
X138676135Y-119438672D01*
X138272812Y-119071689D01*
X137759752Y-118886986D01*
X137541000Y-119030251D01*
X137287000Y-119030251D01*
X137068248Y-118886986D01*
X136555188Y-119071689D01*
X136151865Y-119438672D01*
X135921780Y-119925930D01*
X128363177Y-119925930D01*
X128441476Y-119736890D01*
X128320155Y-119507000D01*
X127127000Y-119507000D01*
X126873000Y-119507000D01*
X125679845Y-119507000D01*
X125558524Y-119736890D01*
X125222000Y-119736890D01*
X125222000Y-114300000D01*
X125485907Y-114300000D01*
X125598946Y-114868285D01*
X125920853Y-115350054D01*
X126250026Y-115570000D01*
X125920853Y-115789946D01*
X125598946Y-116271715D01*
X125485907Y-116840000D01*
X125598946Y-117408285D01*
X125920853Y-117890054D01*
X126261553Y-118117702D01*
X126118642Y-118184817D01*
X125728355Y-118613076D01*
X125558524Y-119023110D01*
X125679845Y-119253000D01*
X126873000Y-119253000D01*
X126873000Y-119233000D01*
X127127000Y-119233000D01*
X127127000Y-119253000D01*
X128320155Y-119253000D01*
X128441476Y-119023110D01*
X128271645Y-118613076D01*
X127881358Y-118184817D01*
X127738447Y-118117702D01*
X128079147Y-117890054D01*
X128401054Y-117408285D01*
X128402281Y-117402114D01*
X130939053Y-116979319D01*
X131022698Y-116947691D01*
X131110407Y-116930245D01*
X131164594Y-116894039D01*
X131225548Y-116870991D01*
X131290721Y-116809763D01*
X131365079Y-116760079D01*
X145590005Y-102535153D01*
X145600167Y-102535162D01*
X145943943Y-102393117D01*
X146207192Y-102130327D01*
X146349838Y-101786799D01*
X146350162Y-101414833D01*
X146208117Y-101071057D01*
X145945327Y-100807808D01*
X145601799Y-100665162D01*
X145555036Y-100665121D01*
X145590004Y-100630153D01*
X145600167Y-100630162D01*
X145943943Y-100488117D01*
X146207192Y-100225327D01*
X146349838Y-99881799D01*
X146350162Y-99509833D01*
X146208117Y-99166057D01*
X145945327Y-98902808D01*
X145601799Y-98760162D01*
X145229833Y-98759838D01*
X144886057Y-98901883D01*
X144622808Y-99164673D01*
X144480162Y-99508201D01*
X144480152Y-99519691D01*
X140635123Y-103364720D01*
X140635162Y-103319833D01*
X140493117Y-102976057D01*
X140230327Y-102712808D01*
X139886799Y-102570162D01*
X139514833Y-102569838D01*
X139171057Y-102711883D01*
X139139886Y-102743000D01*
X133030631Y-102743000D01*
X131110125Y-100822495D01*
X131110162Y-100779833D01*
X130968117Y-100436057D01*
X130705327Y-100172808D01*
X130361799Y-100030162D01*
X129989833Y-100029838D01*
X129646057Y-100171883D01*
X129382808Y-100434673D01*
X129240162Y-100778201D01*
X129239838Y-101150167D01*
X129381883Y-101493943D01*
X129644673Y-101757192D01*
X129988201Y-101899838D01*
X130032246Y-101899876D01*
X130702275Y-102569905D01*
X130624833Y-102569838D01*
X130281057Y-102711883D01*
X130017808Y-102974673D01*
X129875162Y-103318201D01*
X129874838Y-103690167D01*
X130016883Y-104033943D01*
X130279673Y-104297192D01*
X130623201Y-104439838D01*
X130667246Y-104439876D01*
X131541184Y-105313815D01*
X131788395Y-105478996D01*
X132080000Y-105537000D01*
X138462843Y-105537000D01*
X131635500Y-112364342D01*
X131635500Y-110305113D01*
X131744838Y-110041799D01*
X131745162Y-109669833D01*
X131603117Y-109326057D01*
X131340327Y-109062808D01*
X130996799Y-108920162D01*
X130624833Y-108919838D01*
X130281057Y-109061883D01*
X130017808Y-109324673D01*
X129875162Y-109668201D01*
X129874838Y-110040167D01*
X129984500Y-110305570D01*
X129984500Y-112579887D01*
X129875162Y-112843201D01*
X129874942Y-113096325D01*
X128141924Y-113343899D01*
X128079147Y-113249946D01*
X128037548Y-113222150D01*
X128085317Y-113213162D01*
X128301441Y-113074090D01*
X128446431Y-112861890D01*
X128497440Y-112610000D01*
X128497440Y-110910000D01*
X128453162Y-110674683D01*
X128314090Y-110458559D01*
X128101890Y-110313569D01*
X127850000Y-110262560D01*
X126150000Y-110262560D01*
X125914683Y-110306838D01*
X125698559Y-110445910D01*
X125553569Y-110658110D01*
X125502560Y-110910000D01*
X125502560Y-112610000D01*
X125546838Y-112845317D01*
X125685910Y-113061441D01*
X125898110Y-113206431D01*
X125965541Y-113220086D01*
X125920853Y-113249946D01*
X125598946Y-113731715D01*
X125485907Y-114300000D01*
X125222000Y-114300000D01*
X125222000Y-110288466D01*
X125252192Y-110258327D01*
X125394838Y-109914799D01*
X125395162Y-109542833D01*
X125253117Y-109199057D01*
X124990327Y-108935808D01*
X124646799Y-108793162D01*
X124274833Y-108792838D01*
X123931057Y-108934883D01*
X123667808Y-109197673D01*
X123525162Y-109541201D01*
X123524838Y-109913167D01*
X123666883Y-110256943D01*
X123698000Y-110288114D01*
X123698000Y-124271370D01*
X123001370Y-124968000D01*
X122353466Y-124968000D01*
X122323327Y-124937808D01*
X121979799Y-124795162D01*
X121607833Y-124794838D01*
X121264057Y-124936883D01*
X121000808Y-125199673D01*
X120858162Y-125543201D01*
X120857971Y-125762000D01*
X118872000Y-125762000D01*
X118872000Y-90880000D01*
X131953000Y-90880000D01*
X131953000Y-97790000D01*
G36*
X117983000Y-99568000D02*
X106807000Y-99568000D01*
X106807000Y-90932000D01*
X117983000Y-90932000D01*
X117983000Y-99568000D01*
X117983000Y-99568000D01*
G37*
X117983000Y-99568000D02*
X106807000Y-99568000D01*
X106807000Y-90932000D01*
X117983000Y-90932000D01*
X117983000Y-99568000D01*
G36*
X117983000Y-109728000D02*
X106807000Y-109728000D01*
X106807000Y-101092000D01*
X117983000Y-101092000D01*
X117983000Y-109728000D01*
X117983000Y-109728000D01*
G37*
X117983000Y-109728000D02*
X106807000Y-109728000D01*
X106807000Y-101092000D01*
X117983000Y-101092000D01*
X117983000Y-109728000D01*
G36*
X117983000Y-119888000D02*
X106807000Y-119888000D01*
X106807000Y-111252000D01*
X117983000Y-111252000D01*
X117983000Y-119888000D01*
X117983000Y-119888000D01*
G37*
X117983000Y-119888000D02*
X106807000Y-119888000D01*
X106807000Y-111252000D01*
X117983000Y-111252000D01*
X117983000Y-119888000D01*
G36*
X117983000Y-125762000D02*
X111835453Y-125762000D01*
X110236000Y-124162547D01*
X110236000Y-121412000D01*
X117983000Y-121412000D01*
X117983000Y-125762000D01*
X117983000Y-125762000D01*
G37*
X117983000Y-125762000D02*
X111835453Y-125762000D01*
X110236000Y-124162547D01*
X110236000Y-121412000D01*
X117983000Y-121412000D01*
X117983000Y-125762000D01*
M02*
