G04 #@! TF.FileFunction,Soldermask,Top*
%FSLAX46Y46*%
G04 Gerber Fmt 4.6, Leading zero omitted, Abs format (unit mm)*
G04 Created by KiCad (PCBNEW 4.0.7) date 10/28/17 17:46:30*
%MOMM*%
%LPD*%
G01*
G04 APERTURE LIST*
%ADD10C,0.100000*%
%ADD11C,6.800000*%
%ADD12C,1.200000*%
%ADD13R,2.900000X1.500000*%
%ADD14R,1.500000X2.900000*%
%ADD15R,2.100000X2.100000*%
%ADD16O,2.100000X2.100000*%
%ADD17R,1.150000X1.600000*%
%ADD18R,1.600000X1.150000*%
%ADD19R,1.900000X3.600000*%
%ADD20R,3.600000X1.900000*%
%ADD21R,2.200860X2.500580*%
%ADD22R,3.900000X2.400000*%
%ADD23R,7.400000X7.400000*%
%ADD24R,1.300000X1.600000*%
%ADD25R,1.600000X1.300000*%
%ADD26R,1.200000X0.900000*%
%ADD27R,1.200000X0.800000*%
%ADD28R,2.200000X1.500000*%
%ADD29R,1.000000X1.000000*%
%ADD30R,4.200000X2.400000*%
%ADD31R,1.900000X2.400000*%
%ADD32C,1.900000*%
%ADD33C,2.900000*%
%ADD34R,2.900000X2.900000*%
%ADD35C,1.000000*%
G04 APERTURE END LIST*
D10*
D11*
X101000000Y-127000000D03*
D12*
X103400000Y-127000000D03*
X102697056Y-128697056D03*
X101000000Y-129400000D03*
X99302944Y-128697056D03*
X98600000Y-127000000D03*
X99302944Y-125302944D03*
X101000000Y-124600000D03*
X102697056Y-125302944D03*
D11*
X158500000Y-127000000D03*
D12*
X160900000Y-127000000D03*
X160197056Y-128697056D03*
X158500000Y-129400000D03*
X156802944Y-128697056D03*
X156100000Y-127000000D03*
X156802944Y-125302944D03*
X158500000Y-124600000D03*
X160197056Y-125302944D03*
D13*
X133285000Y-99060000D03*
X133285000Y-101060000D03*
X133285000Y-103060000D03*
X133285000Y-105060000D03*
X133285000Y-107060000D03*
X133285000Y-109060000D03*
X133285000Y-111060000D03*
X133285000Y-113060000D03*
X148685000Y-113060000D03*
X148685000Y-111060000D03*
X148685000Y-109060000D03*
X148685000Y-107060000D03*
X148685000Y-105060000D03*
X148685000Y-103060000D03*
X148685000Y-101060000D03*
X148685000Y-99060000D03*
D14*
X135975000Y-114760000D03*
X137975000Y-114760000D03*
X139975000Y-114760000D03*
X141975000Y-114760000D03*
X143975000Y-114760000D03*
X145975000Y-114760000D03*
D15*
X127000000Y-111760000D03*
D16*
X127000000Y-114300000D03*
X127000000Y-116840000D03*
X127000000Y-119380000D03*
D17*
X137795000Y-124775000D03*
X137795000Y-122875000D03*
X159766000Y-101915000D03*
X159766000Y-100015000D03*
D18*
X133538000Y-127762000D03*
X131638000Y-127762000D03*
D19*
X127000000Y-123730000D03*
X127000000Y-127730000D03*
D20*
X138970000Y-118745000D03*
X142970000Y-118745000D03*
D18*
X128585000Y-97155000D03*
X126685000Y-97155000D03*
X140020000Y-121285000D03*
X141920000Y-121285000D03*
D21*
X148590000Y-121579640D03*
X148590000Y-117180360D03*
D22*
X121415000Y-97550000D03*
X121415000Y-92970000D03*
D23*
X114015000Y-95250000D03*
D22*
X121415000Y-107710000D03*
X121415000Y-103130000D03*
D23*
X114015000Y-105410000D03*
D22*
X121415000Y-117870000D03*
X121415000Y-113290000D03*
D23*
X114015000Y-115570000D03*
D22*
X121415000Y-128030000D03*
X121415000Y-123450000D03*
D23*
X114015000Y-125730000D03*
D24*
X153670000Y-99230000D03*
X153670000Y-101430000D03*
D25*
X156040000Y-104140000D03*
X153840000Y-104140000D03*
D24*
X151384000Y-111422000D03*
X151384000Y-113622000D03*
D26*
X126630000Y-108515000D03*
D27*
X126630000Y-106915000D03*
X126630000Y-107715000D03*
D26*
X126630000Y-106115000D03*
D27*
X124830000Y-107715000D03*
D26*
X124830000Y-108515000D03*
D27*
X124830000Y-106915000D03*
D26*
X124830000Y-106115000D03*
X130440000Y-108515000D03*
D27*
X130440000Y-106915000D03*
X130440000Y-107715000D03*
D26*
X130440000Y-106115000D03*
D27*
X128640000Y-107715000D03*
D26*
X128640000Y-108515000D03*
D27*
X128640000Y-106915000D03*
D26*
X128640000Y-106115000D03*
X129170000Y-101530000D03*
D27*
X129170000Y-99930000D03*
X129170000Y-100730000D03*
D26*
X129170000Y-99130000D03*
D27*
X127370000Y-100730000D03*
D26*
X127370000Y-101530000D03*
D27*
X127370000Y-99930000D03*
D26*
X127370000Y-99130000D03*
D28*
X141680000Y-125150000D03*
X147880000Y-125150000D03*
X141680000Y-128850000D03*
X147880000Y-128850000D03*
D29*
X157845000Y-99371000D03*
X156845000Y-99371000D03*
X155845000Y-99371000D03*
X155845000Y-102051000D03*
X156845000Y-102051000D03*
X157845000Y-102051000D03*
D18*
X156245000Y-101086000D03*
X157445000Y-101086000D03*
X156245000Y-100336000D03*
X157445000Y-100336000D03*
D30*
X132715000Y-119405000D03*
D31*
X132715000Y-125705000D03*
X135015000Y-125705000D03*
X130415000Y-125705000D03*
D11*
X101000000Y-94000000D03*
D12*
X103400000Y-94000000D03*
X102697056Y-95697056D03*
X101000000Y-96400000D03*
X99302944Y-95697056D03*
X98600000Y-94000000D03*
X99302944Y-92302944D03*
X101000000Y-91600000D03*
X102697056Y-92302944D03*
D11*
X158500000Y-94000000D03*
D12*
X160900000Y-94000000D03*
X160197056Y-95697056D03*
X158500000Y-96400000D03*
X156802944Y-95697056D03*
X156100000Y-94000000D03*
X156802944Y-92302944D03*
X158500000Y-91600000D03*
X160197056Y-92302944D03*
D15*
X157099000Y-117602000D03*
D16*
X154559000Y-117602000D03*
D32*
X151384000Y-97282000D03*
X159512000Y-104140000D03*
D33*
X101473000Y-120457000D03*
X101473000Y-115457000D03*
X101473000Y-110457000D03*
D34*
X101473000Y-100457000D03*
D33*
X101473000Y-105457000D03*
D34*
X158000000Y-113000000D03*
D33*
X158000000Y-108000000D03*
D35*
X130810000Y-109855000D03*
X130810000Y-113030000D03*
X159766000Y-98425000D03*
X152019000Y-102997000D03*
X135255000Y-121920000D03*
X133985000Y-123190000D03*
X132715000Y-123190000D03*
X135255000Y-123190000D03*
X131445000Y-123190000D03*
X130175000Y-123190000D03*
X131445000Y-121920000D03*
X132715000Y-121920000D03*
X133985000Y-121920000D03*
X130175000Y-121920000D03*
X125730000Y-99060000D03*
X112395000Y-96520000D03*
X113665000Y-96520000D03*
X116205000Y-96520000D03*
X114935000Y-96520000D03*
X116205000Y-95250000D03*
X116205000Y-93980000D03*
X114935000Y-93980000D03*
X113665000Y-93980000D03*
X112395000Y-93980000D03*
X112395000Y-95250000D03*
X113665000Y-95250000D03*
X114935000Y-95250000D03*
X114935000Y-106680000D03*
X116205000Y-106680000D03*
X113665000Y-106680000D03*
X112395000Y-106680000D03*
X116205000Y-104140000D03*
X116205000Y-105410000D03*
X113665000Y-105410000D03*
X112395000Y-105410000D03*
X114935000Y-105410000D03*
X113665000Y-104140000D03*
X114935000Y-104140000D03*
X112395000Y-104140000D03*
X116205000Y-114300000D03*
X112395000Y-114300000D03*
X114935000Y-114300000D03*
X113665000Y-114300000D03*
X114935000Y-115570000D03*
X112395000Y-115570000D03*
X113665000Y-115570000D03*
X116205000Y-115570000D03*
X112395000Y-116840000D03*
X113665000Y-116840000D03*
X116205000Y-116840000D03*
X114935000Y-116840000D03*
X113665000Y-123190000D03*
X116205000Y-123190000D03*
X116205000Y-124460000D03*
X114935000Y-123190000D03*
X112395000Y-123190000D03*
X113665000Y-124460000D03*
X114935000Y-124460000D03*
X112395000Y-124460000D03*
X116205000Y-125730000D03*
X113665000Y-125730000D03*
X112395000Y-125730000D03*
X114935000Y-125730000D03*
X145415000Y-99695000D03*
X145415000Y-101600000D03*
X121793000Y-125730000D03*
X124460000Y-109728000D03*
X139700000Y-103505000D03*
X130175000Y-100965000D03*
X130810000Y-103505000D03*
X139065000Y-104775000D03*
M02*
